Trabajos por ciclo/Ciclo 04/Electricidad y Magnetismo/Laboratorios/Laboratorio 2/LABO2 _IMAGENES DE SEÑALES EN OSCILOSCOPIO_0224/ALL0005 - Senoidal 400 Hz vista a 2 ciclos/F0005CH2.CSV

Record Length,2.500000e+03,,  -0.002250000000,  11.20000,
Sample Interval,1.000000e-06,,  -0.002249000000,  11.60000,
Trigger Point,2.250000000000e+03,,  -0.002248000000,  11.60000,
,,,  -0.002247000000,  11.20000,
,,,  -0.002246000000,  11.60000,
,,,  -0.002245000000,  11.60000,
Source,CH2,,  -0.002244000000,  11.60000,
Vertical Units,V,,  -0.002243000000,  11.60000,
Vertical Scale,1.000000e+01,,  -0.002242000000,  11.60000,
Vertical Offset,5.600000e+00,,  -0.002241000000,  12.00000,
Horizontal Units,s,,  -0.002240000000,  11.60000,
Horizontal Scale,2.500000e-04,,  -0.002239000000,  12.00000,
Pt Fmt,Y,,  -0.002238000000,  12.00000,
Yzero,0.000000e+00,,  -0.002237000000,  12.00000,
Probe Atten,1.000000e+01,,  -0.002236000000,  12.00000,
Model Number,TBS1052B,,  -0.002235000000,  12.00000,
Serial Number,C012748,,  -0.002234000000,  12.00000,
Firmware Version,FV:v4.06,,  -0.002233000000,  12.00000,
,,,-00.002232000000,  12.00000,
,,,-00.002231000000,  12.40000,
,,,-00.002230000000,  12.40000,
,,,-00.002229000000,  12.40000,
,,,-00.002228000000,  12.40000,
,,,-00.002227000000,  12.40000,
,,,-00.002226000000,  12.40000,
,,,-00.002225000000,  12.40000,
,,,-00.002224000000,  12.40000,
,,,-00.002223000000,  12.80000,
,,,-00.002222000000,  12.80000,
,,,-00.002221000000,  12.80000,
,,,-00.002220000000,  12.80000,
,,,-00.002219000000,  12.80000,
,,,-00.002218000000,  12.80000,
,,,-00.002217000000,  12.80000,
,,,-00.002216000000,  12.80000,
,,,-00.002215000000,  13.20000,
,,,-00.002214000000,  12.80000,
,,,-00.002213000000,  13.20000,
,,,-00.002212000000,  13.20000,
,,,-00.002211000000,  13.20000,
,,,-00.002210000000,  13.20000,
,,,-00.002209000000,  13.20000,
,,,-00.002208000000,  13.20000,
,,,-00.002207000000,  13.20000,
,,,-00.002206000000,  13.20000,
,,,-00.002205000000,  13.60000,
,,,-00.002204000000,  13.20000,
,,,-00.002203000000,  13.20000,
,,,-00.002202000000,  13.60000,
,,,-00.002201000000,  13.60000,
,,,-00.002200000000,  13.60000,
,,,-00.002199000000,  13.60000,
,,,-00.002198000000,  13.60000,
,,,-00.002197000000,  13.60000,
,,,-00.002196000000,  13.60000,
,,,-00.002195000000,  14.00000,
,,,-00.002194000000,  13.60000,
,,,-00.002193000000,  14.00000,
,,,-00.002192000000,  14.00000,
,,,-00.002191000000,  14.00000,
,,,-00.002190000000,  14.00000,
,,,-00.002189000000,  14.40000,
,,,-00.002188000000,  14.00000,
,,,-00.002187000000,  14.00000,
,,,-00.002186000000,  14.00000,
,,,-00.002185000000,  14.40000,
,,,-00.002184000000,  14.00000,
,,,-00.002183000000,  14.40000,
,,,-00.002182000000,  14.40000,
,,,-00.002181000000,  14.40000,
,,,-00.002180000000,  14.40000,
,,,-00.002179000000,  14.80000,
,,,-00.002178000000,  14.40000,
,,,-00.002177000000,  14.40000,
,,,-00.002176000000,  14.80000,
,,,-00.002175000000,  14.80000,
,,,-00.002174000000,  14.80000,
,,,-00.002173000000,  14.80000,
,,,-00.002172000000,  14.80000,
,,,-00.002171000000,  14.80000,
,,,-00.002170000000,  14.80000,
,,,-00.002169000000,  14.80000,
,,,-00.002168000000,  14.80000,
,,,-00.002167000000,  14.80000,
,,,-00.002166000000,  14.80000,
,,,-00.002165000000,  14.80000,
,,,-00.002164000000,  15.20000,
,,,-00.002163000000,  15.20000,
,,,-00.002162000000,  15.20000,
,,,-00.002161000000,  15.20000,
,,,-00.002160000000,  15.20000,
,,,-00.002159000000,  15.20000,
,,,-00.002158000000,  15.20000,
,,,-00.002157000000,  15.60000,
,,,-00.002156000000,  15.20000,
,,,-00.002155000000,  15.60000,
,,,-00.002154000000,  15.60000,
,,,-00.002153000000,  15.20000,
,,,-00.002152000000,  15.60000,
,,,-00.002151000000,  15.60000,
,,,-00.002150000000,  15.60000,
,,,-00.002149000000,  15.60000,
,,,-00.002148000000,  15.60000,
,,,-00.002147000000,  15.60000,
,,,-00.002146000000,  15.60000,
,,,-00.002145000000,  15.60000,
,,,-00.002144000000,  16.00000,
,,,-00.002143000000,  16.00000,
,,,-00.002142000000,  16.00000,
,,,-00.002141000000,  16.00000,
,,,-00.002140000000,  16.00000,
,,,-00.002139000000,  16.00000,
,,,-00.002138000000,  16.00000,
,,,-00.002137000000,  16.40000,
,,,-00.002136000000,  16.00000,
,,,-00.002135000000,  16.00000,
,,,-00.002134000000,  16.00000,
,,,-00.002133000000,  16.40000,
,,,-00.002132000000,  16.40000,
,,,-00.002131000000,  16.40000,
,,,-00.002130000000,  16.40000,
,,,-00.002129000000,  16.40000,
,,,-00.002128000000,  16.40000,
,,,-00.002127000000,  16.40000,
,,,-00.002126000000,  16.40000,
,,,-00.002125000000,  16.40000,
,,,-00.002124000000,  16.40000,
,,,-00.002123000000,  16.40000,
,,,-00.002122000000,  16.40000,
,,,-00.002121000000,  16.40000,
,,,-00.002120000000,  16.80000,
,,,-00.002119000000,  16.40000,
,,,-00.002118000000,  16.40000,
,,,-00.002117000000,  16.80000,
,,,-00.002116000000,  16.80000,
,,,-00.002115000000,  16.80000,
,,,-00.002114000000,  16.80000,
,,,-00.002113000000,  16.80000,
,,,-00.002112000000,  16.80000,
,,,-00.002111000000,  16.80000,
,,,-00.002110000000,  16.80000,
,,,-00.002109000000,  16.80000,
,,,-00.002108000000,  16.80000,
,,,-00.002107000000,  16.80000,
,,,-00.002106000000,  16.80000,
,,,-00.002105000000,  16.80000,
,,,-00.002104000000,  16.80000,
,,,-00.002103000000,  17.20000,
,,,-00.002102000000,  17.20000,
,,,-00.002101000000,  17.20000,
,,,-00.002100000000,  17.20000,
,,,-00.002099000000,  17.20000,
,,,-00.002098000000,  17.20000,
,,,-00.002097000000,  17.20000,
,,,-00.002096000000,  17.20000,
,,,-00.002095000000,  17.20000,
,,,-00.002094000000,  17.20000,
,,,-00.002093000000,  17.20000,
,,,-00.002092000000,  17.20000,
,,,-00.002091000000,  17.60000,
,,,-00.002090000000,  17.20000,
,,,-00.002089000000,  17.60000,
,,,-00.002088000000,  17.60000,
,,,-00.002087000000,  17.60000,
,,,-00.002086000000,  17.20000,
,,,-00.002085000000,  17.20000,
,,,-00.002084000000,  17.60000,
,,,-00.002083000000,  17.60000,
,,,-00.002082000000,  17.60000,
,,,-00.002081000000,  17.60000,
,,,-00.002080000000,  17.60000,
,,,-00.002079000000,  17.60000,
,,,-00.002078000000,  18.00000,
,,,-00.002077000000,  18.00000,
,,,-00.002076000000,  18.00000,
,,,-00.002075000000,  18.00000,
,,,-00.002074000000,  18.00000,
,,,-00.002073000000,  17.60000,
,,,-00.002072000000,  18.00000,
,,,-00.002071000000,  18.00000,
,,,-00.002070000000,  18.00000,
,,,-00.002069000000,  18.00000,
,,,-00.002068000000,  18.00000,
,,,-00.002067000000,  18.00000,
,,,-00.002066000000,  18.00000,
,,,-00.002065000000,  18.40000,
,,,-00.002064000000,  18.00000,
,,,-00.002063000000,  18.00000,
,,,-00.002062000000,  18.00000,
,,,-00.002061000000,  18.00000,
,,,-00.002060000000,  18.40000,
,,,-00.002059000000,  18.40000,
,,,-00.002058000000,  18.00000,
,,,-00.002057000000,  18.40000,
,,,-00.002056000000,  18.40000,
,,,-00.002055000000,  18.40000,
,,,-00.002054000000,  18.40000,
,,,-00.002053000000,  18.40000,
,,,-00.002052000000,  18.40000,
,,,-00.002051000000,  18.40000,
,,,-00.002050000000,  18.40000,
,,,-00.002049000000,  18.40000,
,,,-00.002048000000,  18.40000,
,,,-00.002047000000,  18.40000,
,,,-00.002046000000,  18.40000,
,,,-00.002045000000,  18.40000,
,,,-00.002044000000,  18.80000,
,,,-00.002043000000,  18.40000,
,,,-00.002042000000,  18.80000,
,,,-00.002041000000,  18.80000,
,,,-00.002040000000,  18.80000,
,,,-00.002039000000,  18.40000,
,,,-00.002038000000,  18.40000,
,,,-00.002037000000,  18.80000,
,,,-00.002036000000,  18.80000,
,,,-00.002035000000,  18.80000,
,,,-00.002034000000,  18.80000,
,,,-00.002033000000,  18.80000,
,,,-00.002032000000,  18.80000,
,,,-00.002031000000,  18.80000,
,,,-00.002030000000,  18.80000,
,,,-00.002029000000,  18.80000,
,,,-00.002028000000,  18.80000,
,,,-00.002027000000,  18.80000,
,,,-00.002026000000,  18.80000,
,,,-00.002025000000,  18.80000,
,,,-00.002024000000,  19.20000,
,,,-00.002023000000,  19.20000,
,,,-00.002022000000,  19.20000,
,,,-00.002021000000,  19.20000,
,,,-00.002020000000,  18.80000,
,,,-00.002019000000,  19.20000,
,,,-00.002018000000,  19.20000,
,,,-00.002017000000,  19.20000,
,,,-00.002016000000,  19.20000,
,,,-00.002015000000,  19.20000,
,,,-00.002014000000,  19.20000,
,,,-00.002013000000,  19.20000,
,,,-00.002012000000,  19.20000,
,,,-00.002011000000,  19.20000,
,,,-00.002010000000,  19.20000,
,,,-00.002009000000,  19.20000,
,,,-00.002008000000,  19.20000,
,,,-00.002007000000,  19.20000,
,,,-00.002006000000,  19.20000,
,,,-00.002005000000,  19.20000,
,,,-00.002004000000,  19.60000,
,,,-00.002003000000,  19.20000,
,,,-00.002002000000,  19.60000,
,,,-00.002001000000,  19.60000,
,,,-00.002000000000,  19.60000,
,,,-00.001999000000,  19.20000,
,,,-00.001998000000,  19.60000,
,,,-00.001997000000,  19.60000,
,,,-00.001996000000,  19.60000,
,,,-00.001995000000,  19.60000,
,,,-00.001994000000,  19.60000,
,,,-00.001993000000,  19.60000,
,,,-00.001992000000,  19.60000,
,,,-00.001991000000,  19.60000,
,,,-00.001990000000,  19.60000,
,,,-00.001989000000,  19.60000,
,,,-00.001988000000,  19.60000,
,,,-00.001987000000,  19.60000,
,,,-00.001986000000,  19.60000,
,,,-00.001985000000,  19.60000,
,,,-00.001984000000,  19.60000,
,,,-00.001983000000,  19.60000,
,,,-00.001982000000,  19.60000,
,,,-00.001981000000,  19.60000,
,,,-00.001980000000,  19.60000,
,,,-00.001979000000,  19.60000,
,,,-00.001978000000,  19.60000,
,,,-00.001977000000,  20.00000,
,,,-00.001976000000,  19.60000,
,,,-00.001975000000,  19.60000,
,,,-00.001974000000,  19.60000,
,,,-00.001973000000,  19.60000,
,,,-00.001972000000,  19.60000,
,,,-00.001971000000,  19.60000,
,,,-00.001970000000,  19.60000,
,,,-00.001969000000,  19.60000,
,,,-00.001968000000,  19.60000,
,,,-00.001967000000,  19.60000,
,,,-00.001966000000,  19.60000,
,,,-00.001965000000,  20.00000,
,,,-00.001964000000,  20.00000,
,,,-00.001963000000,  20.00000,
,,,-00.001962000000,  19.60000,
,,,-00.001961000000,  20.00000,
,,,-00.001960000000,  20.00000,
,,,-00.001959000000,  20.00000,
,,,-00.001958000000,  19.60000,
,,,-00.001957000000,  20.00000,
,,,-00.001956000000,  20.00000,
,,,-00.001955000000,  20.00000,
,,,-00.001954000000,  20.00000,
,,,-00.001953000000,  20.00000,
,,,-00.001952000000,  19.60000,
,,,-00.001951000000,  20.00000,
,,,-00.001950000000,  20.00000,
,,,-00.001949000000,  20.00000,
,,,-00.001948000000,  20.00000,
,,,-00.001947000000,  20.00000,
,,,-00.001946000000,  20.00000,
,,,-00.001945000000,  20.00000,
,,,-00.001944000000,  19.60000,
,,,-00.001943000000,  20.00000,
,,,-00.001942000000,  20.00000,
,,,-00.001941000000,  20.00000,
,,,-00.001940000000,  20.00000,
,,,-00.001939000000,  20.00000,
,,,-00.001938000000,  20.00000,
,,,-00.001937000000,  20.00000,
,,,-00.001936000000,  20.00000,
,,,-00.001935000000,  20.00000,
,,,-00.001934000000,  20.00000,
,,,-00.001933000000,  20.00000,
,,,-00.001932000000,  20.00000,
,,,-00.001931000000,  20.00000,
,,,-00.001930000000,  20.00000,
,,,-00.001929000000,  20.00000,
,,,-00.001928000000,  20.00000,
,,,-00.001927000000,  20.00000,
,,,-00.001926000000,  20.00000,
,,,-00.001925000000,  20.00000,
,,,-00.001924000000,  20.00000,
,,,-00.001923000000,  20.00000,
,,,-00.001922000000,  20.00000,
,,,-00.001921000000,  20.00000,
,,,-00.001920000000,  20.00000,
,,,-00.001919000000,  20.00000,
,,,-00.001918000000,  20.00000,
,,,-00.001917000000,  20.00000,
,,,-00.001916000000,  20.00000,
,,,-00.001915000000,  20.00000,
,,,-00.001914000000,  20.00000,
,,,-00.001913000000,  20.00000,
,,,-00.001912000000,  20.00000,
,,,-00.001911000000,  20.00000,
,,,-00.001910000000,  20.00000,
,,,-00.001909000000,  20.00000,
,,,-00.001908000000,  20.00000,
,,,-00.001907000000,  20.00000,
,,,-00.001906000000,  20.00000,
,,,-00.001905000000,  20.00000,
,,,-00.001904000000,  20.00000,
,,,-00.001903000000,  20.00000,
,,,-00.001902000000,  20.00000,
,,,-00.001901000000,  20.00000,
,,,-00.001900000000,  20.00000,
,,,-00.001899000000,  20.00000,
,,,-00.001898000000,  20.00000,
,,,-00.001897000000,  20.00000,
,,,-00.001896000000,  20.00000,
,,,-00.001895000000,  20.00000,
,,,-00.001894000000,  20.00000,
,,,-00.001893000000,  20.00000,
,,,-00.001892000000,  20.00000,
,,,-00.001891000000,  20.00000,
,,,-00.001890000000,  20.00000,
,,,-00.001889000000,  20.00000,
,,,-00.001888000000,  20.00000,
,,,-00.001887000000,  20.00000,
,,,-00.001886000000,  20.00000,
,,,-00.001885000000,  20.00000,
,,,-00.001884000000,  19.60000,
,,,-00.001883000000,  20.00000,
,,,-00.001882000000,  20.00000,
,,,-00.001881000000,  20.00000,
,,,-00.001880000000,  20.00000,
,,,-00.001879000000,  20.00000,
,,,-00.001878000000,  20.00000,
,,,-00.001877000000,  20.00000,
,,,-00.001876000000,  20.00000,
,,,-00.001875000000,  20.00000,
,,,-00.001874000000,  20.00000,
,,,-00.001873000000,  20.00000,
,,,-00.001872000000,  20.00000,
,,,-00.001871000000,  20.00000,
,,,-00.001870000000,  20.00000,
,,,-00.001869000000,  19.60000,
,,,-00.001868000000,  20.00000,
,,,-00.001867000000,  20.00000,
,,,-00.001866000000,  20.00000,
,,,-00.001865000000,  20.00000,
,,,-00.001864000000,  20.00000,
,,,-00.001863000000,  19.60000,
,,,-00.001862000000,  20.00000,
,,,-00.001861000000,  20.00000,
,,,-00.001860000000,  20.00000,
,,,-00.001859000000,  19.60000,
,,,-00.001858000000,  20.00000,
,,,-00.001857000000,  19.60000,
,,,-00.001856000000,  19.60000,
,,,-00.001855000000,  19.60000,
,,,-00.001854000000,  19.60000,
,,,-00.001853000000,  20.00000,
,,,-00.001852000000,  19.60000,
,,,-00.001851000000,  20.00000,
,,,-00.001850000000,  20.00000,
,,,-00.001849000000,  19.60000,
,,,-00.001848000000,  19.60000,
,,,-00.001847000000,  19.60000,
,,,-00.001846000000,  19.60000,
,,,-00.001845000000,  20.00000,
,,,-00.001844000000,  20.00000,
,,,-00.001843000000,  19.60000,
,,,-00.001842000000,  19.60000,
,,,-00.001841000000,  19.60000,
,,,-00.001840000000,  19.60000,
,,,-00.001839000000,  19.60000,
,,,-00.001838000000,  19.60000,
,,,-00.001837000000,  19.60000,
,,,-00.001836000000,  19.60000,
,,,-00.001835000000,  19.60000,
,,,-00.001834000000,  19.60000,
,,,-00.001833000000,  19.60000,
,,,-00.001832000000,  19.60000,
,,,-00.001831000000,  19.60000,
,,,-00.001830000000,  19.60000,
,,,-00.001829000000,  19.60000,
,,,-00.001828000000,  19.60000,
,,,-00.001827000000,  19.60000,
,,,-00.001826000000,  19.60000,
,,,-00.001825000000,  19.20000,
,,,-00.001824000000,  19.60000,
,,,-00.001823000000,  19.60000,
,,,-00.001822000000,  19.60000,
,,,-00.001821000000,  19.60000,
,,,-00.001820000000,  19.60000,
,,,-00.001819000000,  19.60000,
,,,-00.001818000000,  19.60000,
,,,-00.001817000000,  19.60000,
,,,-00.001816000000,  19.60000,
,,,-00.001815000000,  19.60000,
,,,-00.001814000000,  19.60000,
,,,-00.001813000000,  19.20000,
,,,-00.001812000000,  19.60000,
,,,-00.001811000000,  19.20000,
,,,-00.001810000000,  19.20000,
,,,-00.001809000000,  19.20000,
,,,-00.001808000000,  19.20000,
,,,-00.001807000000,  19.20000,
,,,-00.001806000000,  19.20000,
,,,-00.001805000000,  19.60000,
,,,-00.001804000000,  19.20000,
,,,-00.001803000000,  19.20000,
,,,-00.001802000000,  19.20000,
,,,-00.001801000000,  19.20000,
,,,-00.001800000000,  19.20000,
,,,-00.001799000000,  19.20000,
,,,-00.001798000000,  19.20000,
,,,-00.001797000000,  18.80000,
,,,-00.001796000000,  18.80000,
,,,-00.001795000000,  19.20000,
,,,-00.001794000000,  19.20000,
,,,-00.001793000000,  19.20000,
,,,-00.001792000000,  19.20000,
,,,-00.001791000000,  19.20000,
,,,-00.001790000000,  18.80000,
,,,-00.001789000000,  18.80000,
,,,-00.001788000000,  19.20000,
,,,-00.001787000000,  19.20000,
,,,-00.001786000000,  18.80000,
,,,-00.001785000000,  18.80000,
,,,-00.001784000000,  18.80000,
,,,-00.001783000000,  18.80000,
,,,-00.001782000000,  19.20000,
,,,-00.001781000000,  18.80000,
,,,-00.001780000000,  18.80000,
,,,-00.001779000000,  18.80000,
,,,-00.001778000000,  18.80000,
,,,-00.001777000000,  18.80000,
,,,-00.001776000000,  18.80000,
,,,-00.001775000000,  18.80000,
,,,-00.001774000000,  18.80000,
,,,-00.001773000000,  18.80000,
,,,-00.001772000000,  18.40000,
,,,-00.001771000000,  18.40000,
,,,-00.001770000000,  18.40000,
,,,-00.001769000000,  18.40000,
,,,-00.001768000000,  18.40000,
,,,-00.001767000000,  18.40000,
,,,-00.001766000000,  18.40000,
,,,-00.001765000000,  18.40000,
,,,-00.001764000000,  18.40000,
,,,-00.001763000000,  18.40000,
,,,-00.001762000000,  18.40000,
,,,-00.001761000000,  18.40000,
,,,-00.001760000000,  18.40000,
,,,-00.001759000000,  18.40000,
,,,-00.001758000000,  18.00000,
,,,-00.001757000000,  18.00000,
,,,-00.001756000000,  18.40000,
,,,-00.001755000000,  18.40000,
,,,-00.001754000000,  18.40000,
,,,-00.001753000000,  18.00000,
,,,-00.001752000000,  18.40000,
,,,-00.001751000000,  18.40000,
,,,-00.001750000000,  18.40000,
,,,-00.001749000000,  18.00000,
,,,-00.001748000000,  18.00000,
,,,-00.001747000000,  18.00000,
,,,-00.001746000000,  18.00000,
,,,-00.001745000000,  18.00000,
,,,-00.001744000000,  18.00000,
,,,-00.001743000000,  18.00000,
,,,-00.001742000000,  18.00000,
,,,-00.001741000000,  18.00000,
,,,-00.001740000000,  18.00000,
,,,-00.001739000000,  17.60000,
,,,-00.001738000000,  17.60000,
,,,-00.001737000000,  17.60000,
,,,-00.001736000000,  17.60000,
,,,-00.001735000000,  18.00000,
,,,-00.001734000000,  17.60000,
,,,-00.001733000000,  17.60000,
,,,-00.001732000000,  17.60000,
,,,-00.001731000000,  17.60000,
,,,-00.001730000000,  17.60000,
,,,-00.001729000000,  17.60000,
,,,-00.001728000000,  17.60000,
,,,-00.001727000000,  17.60000,
,,,-00.001726000000,  17.20000,
,,,-00.001725000000,  17.20000,
,,,-00.001724000000,  17.20000,
,,,-00.001723000000,  17.20000,
,,,-00.001722000000,  17.20000,
,,,-00.001721000000,  17.20000,
,,,-00.001720000000,  17.20000,
,,,-00.001719000000,  17.20000,
,,,-00.001718000000,  17.20000,
,,,-00.001717000000,  17.20000,
,,,-00.001716000000,  17.20000,
,,,-00.001715000000,  17.20000,
,,,-00.001714000000,  17.20000,
,,,-00.001713000000,  17.20000,
,,,-00.001712000000,  17.20000,
,,,-00.001711000000,  17.20000,
,,,-00.001710000000,  16.80000,
,,,-00.001709000000,  16.80000,
,,,-00.001708000000,  16.80000,
,,,-00.001707000000,  16.80000,
,,,-00.001706000000,  17.20000,
,,,-00.001705000000,  16.80000,
,,,-00.001704000000,  17.20000,
,,,-00.001703000000,  16.80000,
,,,-00.001702000000,  16.80000,
,,,-00.001701000000,  16.80000,
,,,-00.001700000000,  16.80000,
,,,-00.001699000000,  16.40000,
,,,-00.001698000000,  16.80000,
,,,-00.001697000000,  16.80000,
,,,-00.001696000000,  16.40000,
,,,-00.001695000000,  16.40000,
,,,-00.001694000000,  16.80000,
,,,-00.001693000000,  16.40000,
,,,-00.001692000000,  16.80000,
,,,-00.001691000000,  16.80000,
,,,-00.001690000000,  16.40000,
,,,-00.001689000000,  16.40000,
,,,-00.001688000000,  16.40000,
,,,-00.001687000000,  16.40000,
,,,-00.001686000000,  16.40000,
,,,-00.001685000000,  16.00000,
,,,-00.001684000000,  16.40000,
,,,-00.001683000000,  16.40000,
,,,-00.001682000000,  16.40000,
,,,-00.001681000000,  16.00000,
,,,-00.001680000000,  16.00000,
,,,-00.001679000000,  16.00000,
,,,-00.001678000000,  16.00000,
,,,-00.001677000000,  16.00000,
,,,-00.001676000000,  16.00000,
,,,-00.001675000000,  16.00000,
,,,-00.001674000000,  16.00000,
,,,-00.001673000000,  15.60000,
,,,-00.001672000000,  16.00000,
,,,-00.001671000000,  15.60000,
,,,-00.001670000000,  16.00000,
,,,-00.001669000000,  15.60000,
,,,-00.001668000000,  15.60000,
,,,-00.001667000000,  15.60000,
,,,-00.001666000000,  15.60000,
,,,-00.001665000000,  15.60000,
,,,-00.001664000000,  15.60000,
,,,-00.001663000000,  15.60000,
,,,-00.001662000000,  15.60000,
,,,-00.001661000000,  15.20000,
,,,-00.001660000000,  15.60000,
,,,-00.001659000000,  15.60000,
,,,-00.001658000000,  15.20000,
,,,-00.001657000000,  15.20000,
,,,-00.001656000000,  15.20000,
,,,-00.001655000000,  15.20000,
,,,-00.001654000000,  15.20000,
,,,-00.001653000000,  15.20000,
,,,-00.001652000000,  15.20000,
,,,-00.001651000000,  15.20000,
,,,-00.001650000000,  15.20000,
,,,-00.001649000000,  15.20000,
,,,-00.001648000000,  14.80000,
,,,-00.001647000000,  14.80000,
,,,-00.001646000000,  14.80000,
,,,-00.001645000000,  14.80000,
,,,-00.001644000000,  14.80000,
,,,-00.001643000000,  14.80000,
,,,-00.001642000000,  14.80000,
,,,-00.001641000000,  14.40000,
,,,-00.001640000000,  14.40000,
,,,-00.001639000000,  14.80000,
,,,-00.001638000000,  14.40000,
,,,-00.001637000000,  14.40000,
